/In:"C:\Users\priyankabhatia\source\repos\SwipingPOC\SwipingPOC\obj\x64\Release\ilc\in"
/Lib:"C:\Users\priyankabhatia\source\repos\SwipingPOC\SwipingPOC\obj\x64\Release\ilc\in"
/Lib:"C:\Program Files (x86)\Microsoft SDKs\UWPNuGetPackages\microsoft.net.native.compiler\1.7.3\tools\x64\ilc\lib\Private"
/WinMD:"C:\Users\priyankabhatia\source\repos\SwipingPOC\SwipingPOC\obj\x64\Release\ilc\in\WinMetadata\Windows.winmd"
/VSTelemetrySessionSettings:"{"IsOptedIn":true,"HostName":"Dev14","AppInsightsInstrumentationKey":"f144292e-e3b2-4011-ac90-20e5c03fbce5","AsimovInstrumentationKey":"AIF-312cbd79-9dbb-4c48-a7da-3cc2a931cb70","AppId":1001,"UserId":"f888d61a-76f4-4b7e-8a03-18901401a20b","Id":"1aef8b24-fd6c-46c3-b19e-0745809a3692","ProcessStartTime":636874453479432682}"
/RdXmlPath:"C:\Program Files (x86)\Microsoft SDKs\UWPNuGetPackages\microsoft.net.native.compiler\1.7.3\tools\LibraryXML"
/RunOnlyPreDR
